<svg width="24" height="24" viewBox="0 0 24 24"  xmlns="http://www.w3.org/2000/svg">
<path d="M17.6 7.36842H15.2V6.52632C15.2 5.8563 14.9471 5.21372 14.4971 4.73994C14.047 4.26616 13.4365 4 12.8 4H11.2C10.5635 4 9.95303 4.26616 9.50294 4.73994C9.05286 5.21372 8.8 5.8563 8.8 6.52632V7.36842H6.4C5.76348 7.36842 5.15303 7.63459 4.70294 8.10836C4.25286 8.58214 4 9.22472 4 9.89474V17.4737C4 18.1437 4.25286 18.7863 4.70294 19.2601C5.15303 19.7338 5.76348 20 6.4 20H17.6C18.2365 20 18.847 19.7338 19.2971 19.2601C19.7471 18.7863 20 18.1437 20 17.4737V9.89474C20 9.22472 19.7471 8.58214 19.2971 8.10836C18.847 7.63459 18.2365 7.36842 17.6 7.36842ZM10.4 6.52632C10.4 6.30298 10.4843 6.08878 10.6343 5.93086C10.7843 5.77293 10.9878 5.68421 11.2 5.68421H12.8C13.0122 5.68421 13.2157 5.77293 13.3657 5.93086C13.5157 6.08878 13.6 6.30298 13.6 6.52632V7.36842H10.4V6.52632ZM18.4 17.4737C18.4 17.697 18.3157 17.9112 18.1657 18.0691C18.0157 18.2271 17.8122 18.3158 17.6 18.3158H6.4C6.18783 18.3158 5.98434 18.2271 5.83431 18.0691C5.68429 17.9112 5.6 17.697 5.6 17.4737V12.8421C7.63701 13.6928 9.80855 14.1299 12 14.1305C14.1914 14.1291 16.3628 13.692 18.4 12.8421V17.4737ZM18.4 10.9979C16.3827 11.9308 14.2034 12.4124 12 12.4124C9.79664 12.4124 7.61728 11.9308 5.6 10.9979V9.89474C5.6 9.6714 5.68429 9.4572 5.83431 9.29928C5.98434 9.14135 6.18783 9.05263 6.4 9.05263H17.6C17.8122 9.05263 18.0157 9.14135 18.1657 9.29928C18.3157 9.4572 18.4 9.6714 18.4 9.89474V10.9979Z" />
</svg>
