<svg width="24" height="24" viewBox="0 0 24 24"  xmlns="http://www.w3.org/2000/svg">
<path fill-rule="evenodd" clip-rule="evenodd" d="M10.4697 16.5303C10.1768 16.2374 10.1768 15.7626 10.4697 15.4697L13.9393 12L10.4697 8.53033C10.1768 8.23744 10.1768 7.76256 10.4697 7.46967C10.7626 7.17678 11.2374 7.17678 11.5303 7.46967L16.0607 12L11.5303 16.5303C11.2374 16.8232 10.7626 16.8232 10.4697 16.5303Z" />
</svg>
