<svg width="14" height="14" viewBox="0 0 14 14" fill="none" xmlns="http://www.w3.org/2000/svg">
<path fill-rule="evenodd" clip-rule="evenodd" d="M11.1666 6.9586C11.2316 7.28373 11.6207 7.42105 11.8754 7.20878C12.0491 7.06396 12.3047 7.07555 12.4646 7.23549L13.7447 8.51562C14.0851 8.85597 14.0851 9.40779 13.7447 9.74814L9.74812 13.7447C9.40777 14.0851 8.85595 14.0851 8.5156 13.7447L7.23548 12.4646C7.07553 12.3047 7.06395 12.0491 7.20877 11.8754C7.42106 11.6207 7.28373 11.2316 6.95858 11.1665L2.77807 10.3304C2.4453 10.2639 2.18143 10.0102 2.1018 9.68033L0.0250647 1.07675C-0.127852 0.443237 0.443239 -0.127852 1.07675 0.0250647L9.68037 2.10179C10.0103 2.18142 10.2639 2.44529 10.3305 2.77806L11.1666 6.9586ZM7.67932 6.22682C7.67932 7.02903 7.029 7.67935 6.22679 7.67935C5.42457 7.67935 4.77425 7.02903 4.77425 6.22682C4.77425 5.4246 5.42457 4.77428 6.22679 4.77428C7.029 4.77428 7.67932 5.4246 7.67932 6.22682Z" fill="url(#paint0_linear_107_254)"/>
<defs>
<linearGradient id="paint0_linear_107_254" x1="2" y1="1" x2="12.5" y2="13" gradientUnits="userSpaceOnUse">
<stop offset="0.151042" stop-color="#FFBE5B"/>
<stop offset="1" stop-color="#E88B00"/>
</linearGradient>
</defs>
</svg>
