<svg width="13" height="13" viewBox="0 0 13 13" fill="none" xmlns="http://www.w3.org/2000/svg">
<path d="M10.5001 3.00005C12.5939 5.09387 12.94 8.43438 12.9111 10.6102C12.894 11.8949 11.8949 12.8941 10.6101 12.9111C8.43436 12.94 5.09386 12.5939 3.00004 10.5001C0.906224 8.40629 0.560094 5.06578 0.589014 2.89C0.60609 1.60525 1.60524 0.606101 2.88999 0.589025C5.06577 0.560105 8.40627 0.906235 10.5001 3.00005Z" fill="url(#paint0_linear_90_115)"/>
<defs>
<linearGradient id="paint0_linear_90_115" x1="0.750025" y1="0.750036" x2="12.7501" y2="12.7501" gradientUnits="userSpaceOnUse">
<stop stop-color="#4AC46C"/>
<stop offset="1" stop-color="#128532"/>
</linearGradient>
</defs>
</svg>
