<svg width="24" height="24" viewBox="0 0 24 24" fill="none" xmlns="http://www.w3.org/2000/svg">
  <path d="M11.5 5H5.667A1.667 1.667 0 0 0 4 6.667v11.666A1.666 1.666 0 0 0 5.667 20h11.666A1.666 1.666 0 0 0 19 18.333V12.5" stroke-width="1.5" stroke-linecap="round" stroke-linejoin="round"/>
  <path d="M16.923 4.528a1.803 1.803 0 1 1 2.549 2.55l-8.073 8.072L8 16l.85-3.4 8.073-8.072Z" stroke-width="1.5" stroke-linecap="round" stroke-linejoin="round"/>
</svg>
