<svg width="220" height="220" viewBox="0 0 220 220" fill="none" xmlns="http://www.w3.org/2000/svg">
<path d="M107.331 220C48.0537 220 -6.95439e-06 159.098 -4.4801e-06 102.493C-2.00581e-06 45.8875 48.0537 -7.51601e-06 107.331 -4.92492e-06C166.608 -2.33383e-06 220 20.2774 220 76.8826C220 133.488 166.608 220 107.331 220Z" fill="#FEF2F1"/>
</svg>
