<svg width="24" height="24" viewBox="0 0 24 24"  xmlns="http://www.w3.org/2000/svg">
<path d="M12.0337 14.4328L9.29943 17.1671C8.96838 17.4866 8.52625 17.6651 8.06617 17.6651C7.60609 17.6651 7.16397 17.4866 6.83292 17.1671C6.67056 17.0054 6.54172 16.8132 6.45382 16.6015C6.36591 16.3899 6.32066 16.163 6.32066 15.9338C6.32066 15.7047 6.36591 15.4778 6.45382 15.2661C6.54172 15.0545 6.67056 14.8623 6.83292 14.7006L9.56722 11.9663C9.69992 11.8336 9.77447 11.6536 9.77447 11.4659C9.77447 11.2783 9.69992 11.0983 9.56722 10.9656C9.43452 10.8329 9.25454 10.7583 9.06687 10.7583C8.8792 10.7583 8.69922 10.8329 8.56652 10.9656L5.83222 13.7069C5.28138 14.3065 4.98347 15.0957 5.00071 15.9097C5.01794 16.7237 5.34898 17.4996 5.9247 18.0753C6.50042 18.651 7.2763 18.9821 8.09031 18.9993C8.90431 19.0165 9.69351 18.7186 10.2931 18.1678L13.0344 15.4335C13.1671 15.3008 13.2417 15.1208 13.2417 14.9331C13.2417 14.7455 13.1671 14.5655 13.0344 14.4328C12.9017 14.3001 12.7217 14.2255 12.5341 14.2255C12.3464 14.2255 12.1664 14.3001 12.0337 14.4328V14.4328ZM18.0802 5.9198C17.4874 5.33067 16.6855 5 15.8498 5C15.014 5 14.2122 5.33067 13.6193 5.9198L10.878 8.65411C10.8123 8.71981 10.7602 8.79782 10.7246 8.88367C10.689 8.96952 10.6707 9.06153 10.6707 9.15445C10.6707 9.24738 10.689 9.33939 10.7246 9.42524C10.7602 9.51109 10.8123 9.5891 10.878 9.6548C10.9437 9.72051 11.0217 9.77263 11.1076 9.80819C11.1934 9.84375 11.2854 9.86205 11.3783 9.86205C11.4713 9.86205 11.5633 9.84375 11.6491 9.80819C11.735 9.77263 11.813 9.72051 11.8787 9.6548L14.613 6.9205C14.944 6.601 15.3862 6.42245 15.8462 6.42245C16.3063 6.42245 16.7484 6.601 17.0795 6.9205C17.2419 7.08223 17.3707 7.27442 17.4586 7.48605C17.5465 7.69768 17.5918 7.92459 17.5918 8.15376C17.5918 8.38292 17.5465 8.60983 17.4586 8.82146C17.3707 9.0331 17.2419 9.22529 17.0795 9.38701L14.3452 12.1213C14.2791 12.1868 14.2267 12.2648 14.1909 12.3506C14.1552 12.4365 14.1367 12.5286 14.1367 12.6217C14.1367 12.7147 14.1552 12.8068 14.1909 12.8927C14.2267 12.9786 14.2791 13.0565 14.3452 13.122C14.4107 13.1881 14.4887 13.2405 14.5745 13.2763C14.6604 13.312 14.7525 13.3305 14.8455 13.3305C14.9386 13.3305 15.0307 13.312 15.1166 13.2763C15.2024 13.2405 15.2804 13.1881 15.3459 13.122L18.0802 10.3807C18.6693 9.78784 19 8.98601 19 8.15023C19 7.31446 18.6693 6.51263 18.0802 5.9198V5.9198ZM9.72226 14.2777C9.78811 14.3431 9.8662 14.3947 9.95206 14.4298C10.0379 14.4649 10.1299 14.4826 10.2226 14.4821C10.3154 14.4826 10.4073 14.4649 10.4932 14.4298C10.579 14.3947 10.6571 14.3431 10.723 14.2777L14.1902 10.8105C14.3229 10.6778 14.3974 10.4979 14.3974 10.3102C14.3974 10.1225 14.3229 9.94254 14.1902 9.80984C14.0575 9.67714 13.8775 9.60259 13.6898 9.60259C13.5021 9.60259 13.3222 9.67714 13.1895 9.80984L9.72226 13.277C9.6562 13.3426 9.60378 13.4205 9.568 13.5064C9.53222 13.5923 9.5138 13.6844 9.5138 13.7774C9.5138 13.8704 9.53222 13.9625 9.568 14.0484C9.60378 14.1343 9.6562 14.2122 9.72226 14.2777Z" />
</svg>
