<svg width="137" height="44" viewBox="0 0 137 44"  xmlns="http://www.w3.org/2000/svg">
<g clip-path="url(#clip0_735:1980)">
<path d="M32.5289 33.7381C32.5289 35.9408 30.5964 37.6739 28.2392 37.6739H24.7507C22.3464 37.6739 19.9893 38.377 17.9615 39.6889L17.8672 39.7832L17.7728 39.6889C15.7561 38.3783 13.3971 37.6781 10.9845 37.6739H7.49599C5.13886 37.6739 3.20544 35.8932 3.20544 33.7381V3.23265H26.0708V0H0V33.7381C0 37.7206 3.34788 40.9074 7.44881 40.9074H10.9373C15.3685 40.9074 17.8672 43.9533 17.8672 43.9533C17.8672 43.9533 20.3186 40.9074 24.7979 40.9074H28.2864C32.3873 40.9074 35.7352 37.6748 35.7352 33.7381V9.98081H32.5289V33.7381ZM19.4232 20.7581H16.2649V35.4245H19.4232V20.7581ZM11.2667 17.3845H8.10931V32.0509H11.2667V17.3845ZM27.5325 17.3845H24.3733V32.0509H27.5325V17.3845ZM27.5796 0V3.23265H30.3605L17.8672 13.2611L9.71158 6.70057L4.71425 10.7306V14.854L9.71158 10.8707L17.8681 17.4312L32.5298 5.52963V8.34024H35.6871V0H27.5796ZM56.5257 9.47137C57.7986 9.47137 58.8828 9.89341 59.7783 10.7366C60.6738 11.5807 61.0984 12.6106 61.0984 13.7825C61.0984 14.9534 60.6738 15.9843 59.7783 16.8284C58.8828 17.6715 57.7986 18.0936 56.5257 18.0936C56.101 18.0936 55.6302 18.046 55.2527 17.905C54.8281 17.8116 54.4979 17.6715 54.2629 17.4839C53.9798 17.3438 53.7911 17.1561 53.5552 17.0151C53.3911 16.8989 53.2479 16.7562 53.1315 16.5931L52.99 16.4063L54.2629 15.001C54.2629 15.0477 54.3101 15.0477 54.3572 15.0944C54.4044 15.1411 54.4979 15.2345 54.6394 15.3279C54.7809 15.4688 54.9225 15.5631 55.1112 15.6565C55.2527 15.7499 55.4886 15.8442 55.7236 15.8909C55.9595 15.9843 56.2426 15.9843 56.4785 15.9843C57.0437 15.9843 57.4683 15.8442 57.8458 15.5622C58.2223 15.2821 58.4582 14.9534 58.6469 14.579H55.4414V12.704H58.6469C58.4927 12.3 58.212 11.9555 57.8458 11.7208C57.4683 11.4397 56.9965 11.2987 56.4785 11.2987C56.2426 11.2987 55.9595 11.3454 55.7236 11.3921C55.4877 11.4864 55.2999 11.5331 55.1112 11.6741L54.6866 11.9551C54.5451 12.0485 54.4979 12.1419 54.4044 12.1886L54.3101 12.3296L52.9428 10.9234C53.0011 10.8702 53.049 10.8069 53.0843 10.7366C53.1315 10.6423 53.273 10.5489 53.508 10.3612C53.7439 10.1745 53.9326 9.9868 54.2157 9.84582C54.4516 9.70574 54.7809 9.56476 55.2047 9.47137C55.6764 9.51807 56.101 9.47137 56.5257 9.47137ZM65.6711 14.7666L64.7756 15.7499V17.8592H62.56V9.70574H64.7756V12.845L67.463 9.70574H70.056L67.1327 13.0794L70.2919 17.8592H67.6989L65.6711 14.7666Z" />
<path d="M77.9757 10.7366C78.8712 11.5807 79.2958 12.6106 79.2958 13.7825C79.2958 14.9534 78.8712 15.9843 77.9757 16.8283C77.0802 17.6715 75.996 18.0936 74.7231 18.0936C73.4502 18.0936 72.366 17.6715 71.4705 16.8274C70.5741 15.9843 70.1504 14.9534 70.1504 13.7825C70.1504 12.6106 70.5741 11.5798 71.4705 10.7366C72.366 9.8925 73.4502 9.47046 74.7231 9.47046C76.0432 9.47046 77.1274 9.8925 77.9757 10.7366ZM73.1199 12.1419C72.6962 12.5639 72.4603 13.1261 72.4603 13.8292C72.4603 14.5323 72.6962 15.0477 73.1199 15.5164C73.5445 15.9843 74.1098 16.1719 74.7703 16.1719C75.4299 16.1719 75.9489 15.9385 76.4206 15.5164C76.8443 15.0944 77.0802 14.5323 77.0802 13.8283C77.0802 13.1261 76.8443 12.5639 76.3726 12.1419C75.9488 11.7198 75.3836 11.4864 74.7231 11.4864C74.1098 11.4397 73.5436 11.6741 73.1199 12.1419ZM88.2063 9.70572V17.8592H85.9907V14.719H82.973V17.8592H80.7575V9.70572H82.973V12.7516H85.9907V9.70572H88.2063ZM97.4461 10.7366C98.3424 11.5807 98.7662 12.6106 98.7662 13.7825C98.7662 14.9534 98.3424 15.9843 97.4461 16.8283C96.5506 17.6715 95.4664 18.0936 94.1934 18.0936C92.9205 18.0936 91.8363 17.6715 90.9408 16.8274C90.0444 15.9843 89.6207 14.9534 89.6207 13.7825C89.6207 12.6106 90.0444 11.5798 90.9408 10.7366C91.8363 9.8925 92.9205 9.47046 94.1934 9.47046C95.4664 9.47046 96.5506 9.8925 97.4461 10.7366ZM92.5431 12.1419C92.1194 12.5639 91.8835 13.1261 91.8835 13.8292C91.8835 14.5323 92.1194 15.0477 92.5431 15.5164C92.9677 15.9843 93.5338 16.1719 94.1934 16.1719C94.853 16.1719 95.372 15.9385 95.8438 15.5164C96.2675 15.0944 96.5034 14.5323 96.5034 13.8283C96.5034 13.1261 96.2675 12.6106 95.8438 12.1419C95.4192 11.7198 94.853 11.4864 94.1934 11.4864C93.5338 11.4397 93.0149 11.6741 92.5431 12.1419ZM104.706 15.8909L102.396 13.0327V17.8592H100.181V9.70572H102.16L104.706 12.9384L107.252 9.70572H109.233V17.8592H107.017V13.0327L104.706 15.8909ZM111.118 9.70572H113.334V14.2512L116.869 9.70572H118.803V17.8592H116.587V13.3137L113.051 17.8592H111.118V9.70572ZM123.8 14.7666L122.904 15.7499V17.8592H120.688V9.70572H122.904V12.845L125.591 9.70572H128.184L125.262 13.0794L128.42 17.8592H125.827L123.8 14.7666Z" />
<path d="M134.03 16.1252H131.343L130.777 17.8583H128.373L131.484 9.70483H133.935L137.047 17.8583H134.643L134.03 16.1252ZM133.417 14.3922L132.663 12.0018L131.908 14.3913H133.417V14.3922ZM57.5164 29.433L55.2056 26.5748V31.4013H52.99V23.2479H54.9706L57.5164 26.4805L60.0623 23.2479H62.042V31.4013H59.8264V26.5748L57.5164 29.433ZM71.2818 24.2787C72.1772 25.1219 72.6019 26.1528 72.6019 27.3246C72.6019 28.4955 72.1772 29.5264 71.2818 30.3696C70.3863 31.2136 69.3012 31.6357 68.0282 31.6357C66.7553 31.6357 65.6711 31.2136 64.7756 30.3696C63.8801 29.5264 63.4555 28.4955 63.4555 27.3246C63.4555 26.1528 63.8801 25.1219 64.7756 24.2787C65.6711 23.4346 66.7553 23.0126 68.0282 23.0126C69.3012 23.0126 70.3863 23.4346 71.2818 24.2787ZM66.426 25.684C66.0014 26.1061 65.7655 26.6682 65.7655 27.3713C65.7655 28.0744 66.0014 28.5898 66.426 29.0576C66.8497 29.4797 67.4149 29.7141 68.0754 29.7141C68.7359 29.7141 69.2549 29.4806 69.7258 29.0585C70.1504 28.6365 70.3863 28.0744 70.3863 27.3704C70.3863 26.6682 70.1504 26.1528 69.7258 25.684C69.3011 25.262 68.7359 25.0285 68.0754 25.0285C67.7677 25.0008 67.4577 25.0458 67.1709 25.1597C66.8842 25.2737 66.6289 25.4534 66.426 25.684ZM76.4669 25.684C76.0432 26.1061 75.8073 26.6682 75.8073 27.3713C75.8073 28.0744 76.0432 28.5898 76.4669 29.0576C76.9387 29.4797 77.4576 29.7141 78.1644 29.7141C78.589 29.7141 78.9655 29.6207 79.3439 29.433C79.7204 29.2453 80.0035 29.0576 80.145 28.9176L80.3809 28.6365L81.6529 30.0418C81.6057 30.0885 81.5586 30.1361 81.5114 30.2295C81.4642 30.3229 81.3236 30.4172 81.0877 30.6048C80.8518 30.7916 80.6159 30.9793 80.38 31.1203C80.1441 31.2603 79.8148 31.4013 79.3911 31.4947C78.9655 31.5881 78.5418 31.6824 78.1172 31.6824C76.8443 31.6824 75.7601 31.2603 74.8646 30.4163C73.9691 29.5731 73.5445 28.5422 73.5445 27.3713C73.5445 26.1994 73.9691 25.1686 74.8646 24.3254C75.7601 23.4813 76.8443 23.0602 78.1172 23.0602C78.5418 23.0602 78.9655 23.1069 79.3902 23.2479C79.7676 23.3412 80.0978 23.4813 80.38 23.6699C80.6159 23.81 80.8518 23.9977 81.0405 24.1377C81.2292 24.2787 81.3708 24.4188 81.4642 24.5598L81.6057 24.7474L80.2385 26.1528C80.2385 26.1061 80.1913 26.1061 80.145 26.0594C80.0978 26.0127 80.0035 25.9184 79.8619 25.825C79.7204 25.7307 79.5789 25.5906 79.4373 25.4963C79.266 25.3824 79.0736 25.3031 78.8712 25.2629C78.6242 25.2056 78.3718 25.174 78.1181 25.1686C77.5048 24.9818 76.9387 25.2153 76.4669 25.684ZM85.9907 28.3079L85.0943 29.292V31.4013H82.8787V23.2479H85.0943V26.3871L87.7816 23.2479H90.3746L87.4514 26.6215L90.6105 31.4013H88.0175L85.9907 28.3087V28.3079ZM95.372 31.4013H91.4589V23.2479H95.1361C95.9853 23.2479 96.6449 23.4813 97.1639 23.9034C97.6819 24.3254 97.9178 24.8408 97.9178 25.403C97.9178 25.6373 97.8706 25.825 97.8235 26.0585C97.7291 26.247 97.6819 26.4338 97.5404 26.5272C97.4554 26.6586 97.3431 26.7707 97.211 26.8559C97.0695 26.9492 97.0223 26.9959 96.928 27.0435L96.8336 27.0902C96.8808 27.0902 96.928 27.1369 96.9751 27.1369C97.0223 27.1836 97.1639 27.2303 97.3045 27.3246C97.4932 27.418 97.6347 27.5581 97.7291 27.699C97.8706 27.84 97.965 28.0268 98.0593 28.2612C98.1537 28.4955 98.2009 28.7299 98.2009 29.011C98.2009 29.6665 97.9178 30.2295 97.3517 30.6982C96.9751 31.167 96.2203 31.4013 95.372 31.4013ZM94.9002 24.9809H93.6744V26.3871H94.9002C95.1361 26.3871 95.3248 26.3404 95.4663 26.1994C95.6079 26.0594 95.655 25.9184 95.655 25.684C95.655 25.4963 95.6079 25.3096 95.4663 25.1686C95.3009 25.0513 95.1036 24.9862 94.9002 24.9818V24.9809ZM93.6744 29.6674H95.1833C95.4663 29.6674 95.655 29.5731 95.8438 29.433C95.9191 29.3598 95.9788 29.2722 96.0192 29.1756C96.0596 29.0791 96.0798 28.9754 96.0788 28.8709C96.0788 28.6365 95.9853 28.4488 95.8438 28.3079C95.7022 28.1678 95.4663 28.0744 95.1833 28.0744H93.6744V29.6674ZM103.34 31.4013H99.756V23.2479H101.972V25.684H103.34C104.235 25.684 104.989 25.9651 105.555 26.4805C106.121 27.0435 106.404 27.699 106.404 28.5422C106.404 29.3863 106.121 30.0418 105.555 30.6048C104.989 31.167 104.235 31.4013 103.34 31.4013ZM102.02 29.433H103.245C103.528 29.433 103.716 29.3387 103.905 29.1519C104.094 28.9643 104.188 28.7766 104.188 28.5422C104.188 28.3088 104.094 28.1202 103.905 27.9334C103.819 27.8456 103.717 27.7756 103.604 27.7273C103.49 27.6791 103.369 27.6536 103.245 27.6523H102.02V29.433ZM109.468 23.2479V31.4013H107.252V23.2479H109.468Z" />
</g>
<defs>
<clipPath id="clip0_735:1980">
<rect width="137" height="44" fill="white"/>
</clipPath>
</defs>
</svg>
