<svg width="49" height="64" viewBox="0 0 49 64"  xmlns="http://www.w3.org/2000/svg">
<path d="M33.5876 8H38.4319C39.1125 8 39.5943 8.66511 39.3821 9.31177L38.1629 13.0275C37.9017 13.8235 36.8363 13.9648 36.3767 13.2644L35.3127 11.6431C35.2505 11.5484 35.1727 11.4649 35.0826 11.3963L32.9815 9.79543C32.2201 9.21534 32.6304 8 33.5876 8Z" />
<path d="M33.903 20.4621L32.178 23.1659C31.8831 23.628 32.0153 24.2413 32.4742 24.541L34.2551 25.704C34.5378 25.8887 34.7083 26.2036 34.7083 26.5413V30.1946C34.7083 31.1348 35.8881 31.5553 36.4828 30.8271L38.5661 28.2761C38.712 28.0975 38.7916 27.8741 38.7916 27.6435V21C38.7916 20.4477 38.3439 20 37.7916 20H34.746C34.4045 20 34.0867 20.1743 33.903 20.4621Z" />
<path fill-rule="evenodd" clip-rule="evenodd" d="M40.6787 5.21615L42.1829 6.00231C43.3657 6.62049 44.3471 7.56391 45.0115 8.72137L46.0814 10.5854C46.8514 11.9268 47.1554 13.4855 46.9459 15.0179L46.5648 17.8071C46.4608 18.5675 46.6523 19.3387 47.0996 19.9622L47.2251 20.1371C48.4306 21.8172 48.8315 23.9444 48.3203 25.9481L47.5943 28.7941C47.1603 30.4952 46.0236 31.9315 44.4677 32.7447C43.6146 33.1906 43.1544 34.1429 43.3354 35.0884L43.3888 35.3678C43.6183 36.5673 43.5087 37.8071 43.0722 38.9477L42.2682 41.0488C41.8148 42.2337 41.0478 43.2731 40.0493 44.0559L38.5335 45.2442C38.1701 45.5291 37.8774 45.8941 37.6781 46.3107L36.9139 47.9083C36.4066 48.9691 35.5691 49.8368 34.527 50.3814C33.7495 50.7878 32.8852 51 32.0079 51H28.5625C26.9057 51 25.5625 49.6568 25.5625 48V3C25.5625 1.34315 26.9057 0 28.5625 0H32.4793C34.3896 0 36.2169 0.780711 37.5375 2.16107L39.9005 4.63122C40.1264 4.86727 40.3892 5.06484 40.6787 5.21615ZM38.4554 6.01377C38.8317 6.40718 39.2698 6.73648 39.7523 6.98866L41.2565 7.77482C42.1013 8.21638 42.8023 8.89024 43.2769 9.717L44.3468 11.581C44.8968 12.5392 45.114 13.6525 44.9644 14.7471L44.584 17.5303L42.8014 18.2288C42.0153 18.5368 41.9411 19.6201 42.6778 20.0325L45.9486 21.8634C46.5324 22.9571 46.6927 24.2373 46.3824 25.4538L45.6564 28.2997C45.3628 29.4505 44.5938 30.4221 43.5413 30.9722C43.0414 31.2335 42.612 31.5854 42.2665 32H41.065C40.9125 32 40.7621 32.0349 40.6251 32.1019L37.0919 33.8325C36.8716 33.9404 36.6987 34.1255 36.606 34.3525L35.271 37.622C35.0024 38.2798 35.4862 39 36.1968 39H40.9108L40.4003 40.334C40.0764 41.1804 39.5286 41.9228 38.8154 42.4819L37.2996 43.6703C37.2588 43.7023 37.2186 43.7348 37.1789 43.768L34.0316 42.5348C33.3757 42.2778 32.6668 42.7614 32.6668 43.4659V48.9363C32.4505 48.9785 32.2299 49 32.0079 49H28.5625C28.0102 49 27.5625 48.5523 27.5625 48V37.625L30.6251 38L32.0692 36.5854C32.415 36.2466 32.4685 35.7087 32.1961 35.3084L27.5625 28.4999V19.9832L27.5661 20L30.7406 14.4986C31.2544 13.6082 31.0095 12.4733 30.1743 11.874L27.5625 10V3C27.5625 2.44772 28.0102 2 28.5625 2H29.2329L33.7049 5.44201C34.4259 5.99698 35.4533 5.37882 35.3007 4.48183L34.9938 2.67826C35.395 2.91168 35.7654 3.20193 36.0923 3.54362L38.4554 6.01377Z" />
<path d="M32.1692 60C32.5031 60 32.815 59.8333 33.0006 59.5556L34.5399 57.2522C34.6498 57.0878 34.7084 56.8944 34.7084 56.6966V54C34.7084 53.4477 34.2607 53 33.7084 53H15.2918C14.7395 53 14.2918 53.4477 14.2918 54V56.697C14.2918 56.8946 14.3503 57.0877 14.4599 57.252L15.9967 59.555C16.1822 59.833 16.4943 60 16.8285 60H32.1692Z" />
<path d="M29.8557 64C30.1652 64 30.4573 63.8566 30.6467 63.6118L31.4201 62.6118C31.9284 61.9545 31.4599 61 30.6291 61H18.3708C17.5399 61 17.0715 61.9545 17.5798 62.6118L18.3532 63.6118C18.5425 63.8566 18.8346 64 19.1442 64H29.8557Z" />
<path d="M20.9772 10.3379L10.4873 3.63627L20.9404 0.710638C22.2156 0.353714 23.4794 1.31236 23.4794 2.63662V8.78304L23.4059 8.67969L20.9772 10.3379Z" />
<path d="M9.22484 20.7996L23.4794 11.0673V26.9087L9.22484 20.7996Z" />
<path d="M20.0839 38.3004L23.4794 30.5393V41.929L20.0839 38.3004Z" />
<path d="M19.2229 40.3401L23.4794 44.8888V49C23.4794 50.1046 22.584 51 21.4794 51H15.47C15.2481 51 15.0337 50.9636 14.8328 50.8961L19.2229 40.3401Z" />
<path d="M16.9177 40.5822L13.4341 48.9582L12.3866 42.8015L16.9177 40.5822Z" />
<path d="M16.1505 38.7219L11.406 41.0457L6.87708 35.9267L16.1505 38.7219Z" />
<path d="M5.9556 22.4428L4.81509 32.4979L1.39355 23.9325L5.9556 22.4428Z" />
<path d="M5.73287 20.4074L1.23993 21.8745L2.73758 14.1723L5.73287 20.4074Z" />
<path d="M17.7806 10.6746L3.81476 11.4564L8.61841 4.79009L17.7806 10.6746Z" />
<path d="M4.62976 13.414L17.5292 12.6919L7.55446 19.5022L4.62976 13.414Z" />
<path d="M9.88867 23.2671L18.6959 36.3959L22.1422 28.5186L9.88867 23.2671Z" />
<path d="M16.4751 36.7272L6.72302 33.7878L7.84826 23.8673L16.4751 36.7272Z" />
</svg>
