<svg width="20" height="20" viewBox="0 0 20 20" fill="none" xmlns="http://www.w3.org/2000/svg">
<path d="M18 7.5V14.8152C18 16.4319 16.5109 17.7505 14.6687 17.7505H13.1038C11.11 17.7505 10 19 10 19C10 19 8.88957 17.7505 6.89574 17.7505H5.33128C3.48909 17.7505 2 16.4436 2 14.8152V1.5C2 1.22386 2.22386 1 2.5 1H11.5M14.5 1H18V4.5" stroke="#B4B4BB" stroke-width="2" stroke-linecap="round" stroke-linejoin="round"/>
<rect x="5" y="9" width="2" height="5" rx="1" fill="#B4B4BB"/>
<rect x="9" y="11" width="2" height="5" rx="1" fill="#B4B4BB"/>
<rect x="13" y="9" width="2" height="5" rx="1" fill="#B4B4BB"/>
<path d="M18 1L10 9L6 5L2 9" stroke="#B4B4BB" stroke-width="2" stroke-linejoin="round"/>
</svg>
