<svg width="8" height="20" viewBox="0 0 8 20" fill="none" xmlns="http://www.w3.org/2000/svg">
<path d="M4.00033 11.9788C5.15092 11.9788 6.08366 11.0927 6.08366 9.99967C6.08366 8.90661 5.15092 8.02051 4.00033 8.02051C2.84973 8.02051 1.91699 8.90661 1.91699 9.99967C1.91699 11.0927 2.84973 11.9788 4.00033 11.9788Z" fill="#90909E"/>
<path d="M4.00033 6.83333C5.15092 6.83333 6.08366 5.94723 6.08366 4.85417C6.08366 3.7611 5.15092 2.875 4.00033 2.875C2.84973 2.875 1.91699 3.7611 1.91699 4.85417C1.91699 5.94723 2.84973 6.83333 4.00033 6.83333Z" fill="#90909E"/>
<path d="M4.00033 17.1253C5.15092 17.1253 6.08366 16.2392 6.08366 15.1462C6.08366 14.0531 5.15092 13.167 4.00033 13.167C2.84973 13.167 1.91699 14.0531 1.91699 15.1462C1.91699 16.2392 2.84973 17.1253 4.00033 17.1253Z" fill="#90909E"/>
</svg>
