<svg width="12" height="12" viewBox="0 0 12 12" fill="none" xmlns="http://www.w3.org/2000/svg">
<path d="M2.651 4.97766C2.88923 5.54935 3.27102 6.04883 3.75785 6.42948C3.61392 6.48675 3.47219 6.54954 3.33299 6.61775C3.12602 6.71908 2.92426 6.83216 2.72906 6.95722C2.46481 7.12668 2.21319 7.31771 1.97619 7.52856C0.869836 8.51285 0.167487 9.86812 0.0035483 11.335C-0.00563096 11.4188 0.00304816 11.5035 0.0290192 11.5837C0.0549903 11.664 0.0976702 11.7379 0.154285 11.8006C0.210897 11.8633 0.280169 11.9135 0.357591 11.9479C0.435012 11.9822 0.518847 12 0.603635 12H11.3964C11.4811 12 11.565 11.9822 11.6424 11.9479C11.7198 11.9135 11.7891 11.8633 11.8457 11.8006C11.9023 11.7379 11.945 11.664 11.971 11.5837C11.9969 11.5035 12.0056 11.4188 11.9965 11.335C11.8325 9.86812 11.1302 8.51285 10.0238 7.52856C9.78587 7.31687 9.53284 7.12554 9.26744 6.9556C8.94085 6.74664 8.59665 6.57015 8.23921 6.4283C8.27202 6.40259 8.30443 6.37627 8.33642 6.34937C8.97305 5.81403 9.40355 5.0768 9.55615 4.26324C9.59731 4.04606 9.61855 3.82414 9.6188 3.60002C9.6188 2.88797 9.40639 2.19196 9.00842 1.59993C8.61046 1.00794 8.04482 0.546516 7.38303 0.274011C6.72125 0.00154965 5.99304 -0.0697298 5.29049 0.0691816C4.58794 0.208093 3.9426 0.550955 3.43609 1.05439C2.92958 1.55788 2.58465 2.19935 2.4449 2.89768C2.30515 3.59602 2.37688 4.31984 2.651 4.97766Z" fill="url(#paint0_linear_101_213)"/>
<defs>
<linearGradient id="paint0_linear_101_213" x1="1.71429" y1="0.857143" x2="10.7143" y2="11.1429" gradientUnits="userSpaceOnUse">
<stop offset="0.151042" stop-color="#FFBE5B"/>
<stop offset="1" stop-color="#E88B00"/>
</linearGradient>
</defs>
</svg>
