<svg width="24" height="24" viewBox="0 0 24 24"  xmlns="http://www.w3.org/2000/svg">
<path d="M9.30273 11.8711L8.11328 8.65137L6.91699 11.8711H9.30273ZM10 13.6895H6.21973L5.37891 16H3.13672L6.99219 6.19727H9.22754L13.083 16H10.8408L10 13.6895Z" />
<path d="M17.8477 16V15.3027C17.793 15.3665 17.7155 15.4463 17.6152 15.542C17.5195 15.6331 17.3076 15.7562 16.9795 15.9111C16.6514 16.0615 16.3096 16.1367 15.9541 16.1367C15.2705 16.1367 14.7145 15.9476 14.2861 15.5693C13.8577 15.1865 13.6436 14.724 13.6436 14.1816C13.6436 13.6211 13.8236 13.154 14.1836 12.7803C14.5436 12.4066 15.0404 12.1628 15.6738 12.0488L17.8477 11.6592C17.8477 11.3721 17.7428 11.1374 17.5332 10.9551C17.3236 10.7728 17.0319 10.6816 16.6582 10.6816C16.3483 10.6816 16.0658 10.7409 15.8105 10.8594C15.5553 10.9733 15.3753 11.0918 15.2705 11.2148L15.1133 11.3789L14.0674 10.333C14.0947 10.2965 14.1312 10.2487 14.1768 10.1895C14.2269 10.1257 14.334 10.0186 14.498 9.86816C14.6667 9.71777 14.849 9.58561 15.0449 9.47168C15.2409 9.35319 15.4984 9.24609 15.8174 9.15039C16.1364 9.05013 16.4622 9 16.7949 9C17.6608 9 18.3672 9.25977 18.9141 9.7793C19.4609 10.2943 19.7344 10.9437 19.7344 11.7275V16H17.8477ZM16.4463 14.5986C16.8747 14.5986 17.2142 14.4642 17.4648 14.1953C17.7201 13.9219 17.8477 13.5436 17.8477 13.0605V12.8486L16.3096 13.1289C15.7946 13.2109 15.5371 13.4684 15.5371 13.9014C15.5371 14.3662 15.8402 14.5986 16.4463 14.5986Z" />
</svg>
