<svg width="16" height="11" viewBox="0 0 16 11" fill="none" xmlns="http://www.w3.org/2000/svg">
<path d="M14.3005 11H1.5C0.786422 11 0.30247 10.2741 0.576923 9.61538L4.15964 1.01688C4.48891 0.226622 5.59428 0.188553 5.97714 0.95428L7.70259 4.40519C8.05184 5.10367 9.03113 5.1502 9.44502 4.48797L10.1013 3.43789C10.505 2.79206 11.4536 2.81649 11.8235 3.48225L15.1746 9.51436C15.5449 10.1809 15.063 11 14.3005 11Z" fill="url(#paint0_linear_90_106)"/>
<defs>
<linearGradient id="paint0_linear_90_106" x1="0.888889" y1="-1" x2="13.7534" y2="11.8963" gradientUnits="userSpaceOnUse">
<stop offset="0.223958" stop-color="#4F80FF"/>
<stop offset="1" stop-color="#274AA6"/>
</linearGradient>
</defs>
</svg>
