<svg width="24" height="24" viewBox="0 0 24 24" fill="none" xmlns="http://www.w3.org/2000/svg">
  <path d="M6 7v12a2 2 0 0 0 2 2h8a2 2 0 0 0 2-2V7" stroke-width="1.5"/>
  <path d="M4.5 7h15M9 7V5a1 1 0 0 1 1-1h4a1 1 0 0 1 1 1v2M10 11v6M14 11v6"  stroke-width="1.5" stroke-linecap="round"/>
</svg>
