<svg width="24" height="24" viewBox="0 0 24 24"  xmlns="http://www.w3.org/2000/svg">
<path fill-rule="evenodd" clip-rule="evenodd" d="M12 2.25C12.4142 2.25 12.75 2.58579 12.75 3V5.5C12.75 5.91421 12.4142 6.25 12 6.25C11.5858 6.25 11.25 5.91421 11.25 5.5V3C11.25 2.58579 11.5858 2.25 12 2.25ZM1.59998 5.55001C1.35145 5.21864 0.881354 5.15149 0.549983 5.40001C0.218612 5.64854 0.151455 6.11864 0.399983 6.45001L1.89998 8.45001C2.14851 8.78138 2.61861 8.84854 2.94998 8.60001C3.28135 8.35149 3.34851 7.88138 3.09998 7.55001L1.59998 5.55001ZM21.0588 14.8905C21.4501 14.3603 21.5 14.0471 21.5 14C21.5 13.9529 21.4501 13.6397 21.0588 13.1095C20.6926 12.6135 20.1083 12.0417 19.2929 11.4981C18.5777 11.0212 17.6998 10.5765 16.6665 10.2282C17.5005 11.2587 18 12.571 18 14C18 15.429 17.5005 16.7413 16.6665 17.7718C17.6998 17.4235 18.5777 16.9788 19.2929 16.5019C20.1083 15.9583 20.6926 15.3865 21.0588 14.8905ZM16.5 14C16.5 11.5147 14.4853 9.5 12 9.5C9.51472 9.5 7.5 11.5147 7.5 14C7.5 16.4853 9.51472 18.5 12 18.5C14.4853 18.5 16.5 16.4853 16.5 14ZM6 14C6 15.429 6.49955 16.7413 7.33353 17.7718C6.30022 17.4235 5.42231 16.9788 4.70705 16.5019C3.89167 15.9583 3.30736 15.3865 2.94124 14.8905C2.5499 14.3603 2.5 14.0471 2.5 14C2.5 13.9529 2.5499 13.6397 2.94124 13.1095C3.30736 12.6135 3.89167 12.0417 4.70705 11.4981C5.42231 11.0212 6.30022 10.5765 7.33353 10.2282C6.49954 11.2587 6 12.571 6 14ZM1 14C1 16 5 20 12 20C19 20 23 16 23 14C23 12 19 8 12 8C5 8 1 12 1 14ZM22.4 5.55001C22.6485 5.21864 23.1186 5.15149 23.45 5.40001C23.7814 5.64854 23.8485 6.11864 23.6 6.45001L22.1 8.45001C21.8515 8.78138 21.3814 8.84854 21.05 8.60001C20.7186 8.35149 20.6515 7.88138 20.9 7.55001L22.4 5.55001Z" />
</svg>
